module gitlab.com/kokegudiel2/banking-auth

go 1.15

require (
	github.com/dgrijalva/jwt-go v3.2.0+incompatible
	github.com/go-sql-driver/mysql v1.5.0
	github.com/gorilla/mux v1.8.0
	github.com/jmoiron/sqlx v1.2.0
	github.com/lib/pq v1.9.0 // indirect
	github.com/mattn/go-sqlite3 v1.14.5 // indirect
)
